5 Split Plot Design – Field Guide to the R Mixed Model Wilderness
…
\[y_{ijk} = \mu + \gamma_i +  \alpha_j + \beta_k + (\alpha_j\beta_k) + \epsilon_{ijk}\]

For this model, \(\gamma\) = block/rep effect (random), \(\alpha\) = main effect of whole plot (fixed), \(\beta\) = main effect of subplot (fixed), \(\alpha\)\(\beta\) = interaction between factors A and B (fixed).

In order to test the main effects of the treatments as well as the interaction between two factors, we can specify that in model as: time + manage + time:manage or time*manage.

When dealing with split plot design across reps or blocks, the random effects needs to be nested hierarchically, from largest unit to smallest. For example, in this example the random effects will be designated as (1 | rep/time). This implies that random intercepts vary with rep and time within rep.

lme4
nlme

model_lmer <- lmer(height ~ time*manage + (1|rep/time), data = height_data)
tidy(model_lmer)

# A tibble: 35 × 8
   effect group term        estimate std.error statistic     df    p.value
   <chr>  <chr> <chr>          <dbl>     <dbl>     <dbl>  <dbl>      <dbl>
 1 fixed  <NA>  (Intercept)   108.        3.19    33.9     4.38 0.00000181
 2 fixed  <NA>  timeT2          3.18      2.63     1.21  104.   0.229     
 3 fixed  <NA>  timeT3         -2.25      2.63    -0.855 104.   0.394     
 4 fixed  <NA>  timeT4          1.28      2.63     0.488 104.   0.627     
 5 fixed  <NA>  manageM2       -4.45      2.55    -1.74  152.   0.0832    
 6 fixed  <NA>  manageM3       -5.30      2.55    -2.08  152.   0.0395    
 7 fixed  <NA>  manageM4       -6.18      2.55    -2.42  152.   0.0166    
 8 fixed  <NA>  manageM5       -5.02      2.55    -1.97  152.   0.0511    
 9 fixed  <NA>  manageM6       -3.42      2.55    -1.34  152.   0.183     
10 fixed  <NA>  manageM7       -9.75      2.55    -3.82  152.   0.000193  
# ℹ 25 more rows

model_lme <-lme(height ~ time*manage,
             random = ~ 1|rep/time, data = height_data)

tidy(model_lme)

Warning in tidy.lme(model_lme): ran_pars not yet implemented for multiple
levels of nesting

# A tibble: 32 × 7
   effect term        estimate std.error    df statistic  p.value
   <chr>  <chr>          <dbl>     <dbl> <dbl>     <dbl>    <dbl>
 1 fixed  (Intercept)   108.        3.19   152    33.9   9.59e-73
 2 fixed  timeT2          3.18      2.63     6     1.21  2.72e- 1
 3 fixed  timeT3         -2.25      2.63     6    -0.855 4.25e- 1
 4 fixed  timeT4          1.28      2.63     6     0.488 6.43e- 1
 5 fixed  manageM2       -4.45      2.55   152    -1.74  8.32e- 2
 6 fixed  manageM3       -5.30      2.55   152    -2.08  3.95e- 2
 7 fixed  manageM4       -6.18      2.55   152    -2.42  1.66e- 2
 8 fixed  manageM5       -5.02      2.55   152    -1.97  5.11e- 2
 9 fixed  manageM6       -3.42      2.55   152    -1.34  1.83e- 1
10 fixed  manageM7       -9.75      2.55   152    -3.82  1.93e- 4
# ℹ 22 more rows
…
