9 Incomplete Block Design – Field Guide to the R Mixed Model Wilderness
…
agg_tbl <- dat %>% group_by(gen) %>% 
  summarise(total_count=n(),
            .groups = 'drop')
agg_tbl

# A tibble: 31 × 2
   gen   total_count
   <fct>       <int>
 1 G01             6
 2 G02             6
 3 G03             6
 4 G04             6
 5 G05             6
 6 G06             6
 7 G07             6
 8 G08             6
 9 G09             6
10 G10             6
# ℹ 21 more rows
…
9.2.1.2 Model Building

We will be evaluating the response of yield as affected by gen (fixed effect) and block (random effect).

Please note that incomplete block effect can be analyzed as a fixed (intra-block analysis) or a random (inter-block analysis) effect. When we consider block as a random effect, the mean values of a block also contain information about the treatment effects.

lme4
nlme

model_icbd <- lmer(log(yield) ~ gen + (1|block),
                   data = dat, 
                   na.action = na.exclude)
tidy(model_icbd)

# A tibble: 33 × 8
   effect group term        estimate std.error statistic    df   p.value
   <chr>  <chr> <chr>          <dbl>     <dbl>     <dbl> <dbl>     <dbl>
 1 fixed  <NA>  (Intercept)  3.20       0.0335    95.5    153. 3.36e-138
 2 fixed  <NA>  genG02       0.0908     0.0424     2.14   129. 3.40e-  2
 3 fixed  <NA>  genG03       0.281      0.0424     6.63   129. 8.29e- 10
 4 fixed  <NA>  genG04       0.0924     0.0424     2.18   129. 3.12e-  2
 5 fixed  <NA>  genG05       0.0651     0.0424     1.54   129. 1.27e-  1
 6 fixed  <NA>  genG06       0.260      0.0424     6.14   129. 9.57e-  9
 7 fixed  <NA>  genG07      -0.0252     0.0424    -0.593  129. 5.54e-  1
 8 fixed  <NA>  genG08       0.115      0.0424     2.71   129. 7.60e-  3
 9 fixed  <NA>  genG09       0.171      0.0424     4.04   129. 9.06e-  5
10 fixed  <NA>  genG10      -0.00444    0.0424    -0.105  129. 9.17e-  1
# ℹ 23 more rows

model_icbd1 <- lme(yield ~ gen,
                  random = ~ 1|block,
                  data = dat, 
                  na.action = na.exclude)
tidy(model_icbd1)

# A tibble: 33 × 8
   effect group term        estimate std.error    df statistic  p.value
   <chr>  <chr> <chr>          <dbl>     <dbl> <dbl>     <dbl>    <dbl>
 1 fixed  <NA>  (Intercept)  24.6        0.922   125   26.7    2.10e-53
 2 fixed  <NA>  genG02        2.40       1.17    125    2.06   4.18e- 2
 3 fixed  <NA>  genG03        8.04       1.17    125    6.88   2.54e-10
 4 fixed  <NA>  genG04        2.37       1.17    125    2.03   4.43e- 2
 5 fixed  <NA>  genG05        1.60       1.17    125    1.37   1.73e- 1
 6 fixed  <NA>  genG06        7.39       1.17    125    6.32   4.11e- 9
 7 fixed  <NA>  genG07       -0.419      1.17    125   -0.359  7.20e- 1
 8 fixed  <NA>  genG08        3.04       1.17    125    2.60   1.04e- 2
 9 fixed  <NA>  genG09        4.84       1.17    125    4.14   6.33e- 5
10 fixed  <NA>  genG10       -0.0429     1.17    125   -0.0367 9.71e- 1
# ℹ 23 more rows
…
