11 Repeated measures mixed models – Field Guide to the R Mixed Model Wilderness
…
Let’s say we want to fit a model using AR1 structure as shown in the RCBD repeated measures example. Previously, we used lme() from nlme package to fit the model. In this example, along with nlme() we will also mmrm() function from the mmrm package. In addition, instead of summary() function we will use tidy() function from the broom.mixed package to look at estimates of mixed and random effects. This will generate a tidy workflow in particular by providing standardized verbs that provide information on estimates, standard errors, confidence intervals, etc.

nlme
mmrm

corr_str1 = corAR1(form = ~ Sample_time|Rep/Variety/plot, value = 0.2, fixed = FALSE)

fit1 <- lme(Yield ~ Sample_time1*Variety*Fertilizer,
                random = ~ 1|Rep/Variety/plot,
                corr= corr_str1,
                data = Yield, na.action= na.exclude)
tidy(fit1)

# A tibble: 30 × 7
   effect term                      estimate std.error    df statistic   p.value
   <chr>  <chr>                        <dbl>     <dbl> <dbl>     <dbl>     <dbl>
 1 fixed  (Intercept)                  1.86      0.708    72     2.63  0.0105   
 2 fixed  Sample_time12                0.515     0.688    72     0.748 0.457    
 3 fixed  Sample_time13                0.787     0.674    72     1.17  0.247    
 4 fixed  Sample_time14                1.35      0.675    72     2.00  0.0496   
 5 fixed  Sample_time15                2.84      0.675    72     4.21  0.0000731
 6 fixed  VarietyVAR2                 -0.996     0.861     3    -1.16  0.331    
 7 fixed  Fertilizer2                  1.27      0.861    12     1.47  0.167    
 8 fixed  Fertilizer3                  2.07      0.861    12     2.40  0.0333   
 9 fixed  Sample_time12:VarietyVAR2    0.739     0.974    72     0.759 0.451    
10 fixed  Sample_time13:VarietyVAR2    0.269     0.954    72     0.282 0.779    
# ℹ 20 more rows

fit2 <- mmrm(formula = Yield ~ Sample_time1*Variety*Fertilizer +  
             ar1(Sample_time1|Rep/plot),
             data = Yield)

tidy(fit2)

# A tibble: 30 × 6
   term                      estimate std.error    df statistic   p.value
   <chr>                        <dbl>     <dbl> <dbl>     <dbl>     <dbl>
 1 (Intercept)                  2.86      0.464 12.7      6.16  0.0000387
 2 Sample_time12                0.656     0.310  1.81     2.12  0.182    
 3 Sample_time13                1.40      0.414  2.29     3.39  0.0636   
 4 Sample_time14                1.46      0.484  2.87     3.01  0.0605   
 5 Sample_time15                2.47      0.549  3.14     4.50  0.0186   
 6 VarietyVAR2                 -1.07      0.656 12.7     -1.63  0.128    
 7 Fertilizer2                  1.67      0.656 12.7      2.55  0.0245   
 8 Fertilizer3                  0.595     0.656 12.7      0.908 0.381    
 9 Sample_time12:VarietyVAR2   -0.591     0.438  1.81    -1.35  0.321    
10 Sample_time13:VarietyVAR2   -0.412     0.586  2.29    -0.704 0.546    
# ℹ 20 more rows
…
