6 Split-Split Plot Design – Field Guide to the R Mixed Model Wilderness
…
optimizer (nloptwrap) convergence code: 0 (OK)
boundary (singular) fit: see help('isSingular')

model3 <- lme(yield ~ nitrogen*management*variety,
                  random = ~ 1|block/nitrogen/management,
                  data = rice, 
                  na.action = na.exclude)
tidy(model3)

Warning in tidy.lme(model3): ran_pars not yet implemented for multiple levels
of nesting

# A tibble: 45 × 7
   effect term                     estimate std.error    df statistic  p.value
   <chr>  <chr>                       <dbl>     <dbl> <dbl>     <dbl>    <dbl>
 1 fixed  (Intercept)                 3.90      0.386    60    10.1   1.43e-14
 2 fixed  nitrogen110                 0.753     0.545     8     1.38  2.05e- 1
 3 fixed  nitrogen140                 0.165     0.545     8     0.302 7.70e- 1
 4 fixed  nitrogen50                  0.335     0.545     8     0.614 5.56e- 1
 5 fixed  nitrogen80                  1.33      0.545     8     2.44  4.08e- 2
 6 fixed  managementm2                0.420     0.540    20     0.779 4.45e- 1
 7 fixed  managementm3                1.43      0.540    20     2.65  1.55e- 2
 8 fixed  variety2                    1.45      0.540    60     2.68  9.38e- 3
 9 fixed  variety3                    1.48      0.540    60     2.74  7.99e- 3
10 fixed  nitrogen110:managementm2    0.377     0.763    20     0.493 6.27e- 1
# ℹ 35 more rows
…
