8 Strip Plot Design – Field Guide to the R Mixed Model Wilderness
…
8.2.2 Model Building

lme4
nlme

model_lmer <- lmer(yield ~  nitro*gen +  (1|rep) + 
                   (1|rep:row) + (1|rep:col), 
                   data = data1)

tidy(model_lmer)

# A tibble: 22 × 8
   effect group term           estimate std.error statistic    df     p.value
   <chr>  <chr> <chr>             <dbl>     <dbl>     <dbl> <dbl>       <dbl>
 1 fixed  <NA>  (Intercept)       3572.      572.     6.24   17.8 0.00000732 
 2 fixed  <NA>  nitro60           1560.      558.     2.80   22.4 0.0104     
 3 fixed  <NA>  nitro120          3976.      558.     7.13   22.4 0.000000341
 4 fixed  <NA>  genG2             1363.      717.     1.90   20.9 0.0714     
 5 fixed  <NA>  genG3              678.      717.     0.945  20.9 0.355      
 6 fixed  <NA>  genG4              487.      717.     0.679  20.9 0.504      
 7 fixed  <NA>  genG5              530.      717.     0.739  20.9 0.468      
 8 fixed  <NA>  genG6             -364.      717.    -0.508  20.9 0.617      
 9 fixed  <NA>  nitro60:genG2      219.      741.     0.296  20.0 0.771      
10 fixed  <NA>  nitro120:genG2   -1699.      741.    -2.29   20.0 0.0328     
# ℹ 12 more rows
…
